{
  "IsEncrypted": false,
  "Values": {
    "WEBSITE_SLOT_NAME": "Production",
    "FUNCTIONS_EXTENSION_VERSION": "~1",
    "ScmType": "None",
    "WEBSITE_AUTH_ENABLED": "False",
    "eventHubConnectionPath": "iothub-ehub-wsm-612240-8037cca7d5",
    "APPINSIGHTS_INSTRUMENTATIONKEY": "557e4b02-d675-4251-a76a-aceea6c1364f",
    "AzureWebJobsDashboard": "DefaultEndpointsProtocol=https;AccountName=wsmfunctionstorage;AccountKey=sDwLBbkR73pqXqASk7tALZXs1BhXMSmKfb/so8CEH7DinxaY4IPCuBk5tGRNaemSXLQuY3rRDWQFk2UZIb1+FQ==",
    "WEBSITE_NODE_DEFAULT_VERSION": "6.5.0",
    "iotHubConnectionString": "HostName=wsm.azure-devices.net;SharedAccessKeyName=iothubowner;SharedAccessKey=ez2FoBbiOYkgWeFZT37ziNVKbyiaqSgldkEMd9yvnAw=",
    "WEBSITE_CONTENTAZUREFILECONNECTIONSTRING": "DefaultEndpointsProtocol=https;AccountName=wsmfunctionstorage;AccountKey=sDwLBbkR73pqXqASk7tALZXs1BhXMSmKfb/so8CEH7DinxaY4IPCuBk5tGRNaemSXLQuY3rRDWQFk2UZIb1+FQ==",
    "WEBSITE_CONTENTSHARE": "wsm-function-content-8f80",
    "WEBSITE_SITE_NAME": "wsm-function",
    "wsm_events_IOTHUB": "Endpoint=sb://ihsuprodbnres004dednamespace.servicebus.windows.net/;SharedAccessKeyName=iothubowner;SharedAccessKey=ez2FoBbiOYkgWeFZT37ziNVKbyiaqSgldkEMd9yvnAw=;EntityPath=iothub-ehub-wsm-612240-8037cca7d5",
    "eventHubConnectionString": "Endpoint=sb://ihsuprodbnres004dednamespace.servicebus.windows.net/;SharedAccessKeyName=iothubowner;SharedAccessKey=ez2FoBbiOYkgWeFZT37ziNVKbyiaqSgldkEMd9yvnAw=",
    "AzureWebJobsStorage": "DefaultEndpointsProtocol=https;AccountName=wsmfunctionstorage;AccountKey=sDwLBbkR73pqXqASk7tALZXs1BhXMSmKfb/so8CEH7DinxaY4IPCuBk5tGRNaemSXLQuY3rRDWQFk2UZIb1+FQ=="
  }
}