{
    "$schema": "https://schema.management.azure.com/schemas/2015-01-01/deploymentParameters.json#",
    "contentVersion": "1.0.0.0",
    "parameters": {
        "sites_wsm_name": {
            "value": null
        },
        "accounts_wsm_name": {
            "value": null
        },
        "sites_api_wsm_name": {
            "value": null
        },
        "IotHubs_wsm_name": {
            "value": null
        },
        "sites_wsm_function_name": {
            "value": null
        },
        "components_wsm_name": {
            "value": null
        },
        "serverfarms_EastUSPlan_name": {
            "value": null
        },
        "components_api_wsm_name": {
            "value": null
        },
        "components_wsm_trigger_name": {
            "value": null
        },
        "components_wsm_function_name": {
            "value": null
        },
        "servers_worksafetymanagement_name": {
            "value": null
        },
        "storageAccounts_wsmtrigger_name": {
            "value": null
        },
        "streamingjobs_wsm_job_name": {
            "value": null
        },
        "components_wsm_alert_function_name": {
            "value": null
        },
        "namespaces_worksafetymanagement_name": {
            "value": null
        },
        "serverfarms_WorkSafetyManagement_Plan_name": {
            "value": null
        },
        "storageAccounts_wsmfunctionstorage_name": {
            "value": null
        },
        "databases_wsm_name": {
            "value": null
        },
        "alertrules_Failure_Anomalies___wsm_trigger_name": {
            "value": null
        },
        "advisors_DropIndex_name": {
            "value": null
        },
        "alertrules_Failure_Anomalies___wsm_function_name": {
            "value": null
        },
        "keys_ServiceManaged_name": {
            "value": null
        },
        "hostNameBindings_wsm.azurewebsites.net_name": {
            "value": null
        },
        "advisors_CreateIndex_name": {
            "value": null
        },
        "eventhubs_wsm_name": {
            "value": null
        },
        "advisors_DefragmentIndex_name": {
            "value": null
        },
        "auditingPolicies_Default_name": {
            "value": null
        },
        "alertrules_Failure_Anomalies___wsm_alert_function_name": {
            "value": null
        },
        "advisors_ForceLastGoodPlan_name": {
            "value": null
        },
        "advisors_DbParameterization_name": {
            "value": null
        },
        "encryptionProtector_current_name": {
            "value": null
        },
        "hostNameBindings_api_wsm.azurewebsites.net_name": {
            "value": null
        },
        "advisors_DropIndex_name_1": {
            "value": null
        },
        "advisors_CreateIndex_name_1": {
            "value": null
        },
        "hostNameBindings_wsm_function.azurewebsites.net_name": {
            "value": null
        },
        "advisors_DefragmentIndex_name_1": {
            "value": null
        },
        "auditingPolicies_Default_name_1": {
            "value": null
        },
        "geoBackupPolicies_Default_name": {
            "value": null
        },
        "advisors_ForceLastGoodPlan_name_1": {
            "value": null
        },
        "auditingPolicies_Default_name_2": {
            "value": null
        },
        "databases_master_name": {
            "value": null
        },
        "advisors_DbParameterization_name_1": {
            "value": null
        },
        "geoBackupPolicies_Default_name_1": {
            "value": null
        },
        "consumergroups_$Default_name": {
            "value": null
        },
        "transparentDataEncryption_current_name": {
            "value": null
        },
        "transparentDataEncryption_current_name_1": {
            "value": null
        },
        "AuthorizationRules_RootManageSharedAccessKey_name": {
            "value": null
        },
        "authorizationRules_iothubroutes_wsm_name": {
            "value": null
        }
    }
}